tibbleColumns
…
This entire package started when I realized that creating a proportion column in R was not a simple and easy thing for tibbles. I was frustrated that Excel was able to do something better than R so I decided to do something about it.

#prop_column_group
mtcars %>% prop_column_group(cyl)
#> # A tibble: 3 x 3
#>     cyl Count Percent
#>   <dbl> <int>   <dbl>
#> 1  4.00    11    34.4
#> 2  6.00     7    21.9
#> 3  8.00    14    43.8

#prop_column
mtcars %>% count(cyl, mpg) %>% prop_column(n)
#> # A tibble: 27 x 4
#>      cyl   mpg     n Perc_n
#>    <dbl> <dbl> <int>  <dbl>
#>  1  4.00  21.4     1   3.12
#>  2  4.00  21.5     1   3.12
#>  3  4.00  22.8     2   6.25
#>  4  4.00  24.4     1   3.12
#>  5  4.00  26.0     1   3.12
#>  6  4.00  27.3     1   3.12
#>  7  4.00  30.4     2   6.25
#>  8  4.00  32.4     1   3.12
#>  9  4.00  33.9     1   3.12
#> 10  6.00  17.8     1   3.12
#> # ... with 17 more rows
…
